8 More on linear regression | 7784 Skills: Programming in R
…
library(tidyverse)
caschools <-
  CASchools %>%
  as_tibble() %>%
  mutate(student_teacher_ratio = students / teachers) %>%
  mutate(test_score = (read + math) / 2)

caschools

## # A tibble: 420 x 16
##    district school county grades students teachers calworks  lunch computer
##    <chr>    <chr>  <fct>  <fct>     <dbl>    <dbl>    <dbl>  <dbl>    <dbl>
##  1 75119    Sunol… Alame… KK-08       195    10.9     0.510   2.04       67
##  2 61499    Manza… Butte  KK-08       240    11.1    15.4    47.9       101
##  3 61549    Therm… Butte  KK-08      1550    82.9    55.0    76.3       169
##  4 61457    Golde… Butte  KK-08       243    14      36.5    77.0        85
##  5 61523    Paler… Butte  KK-08      1335    71.5    33.1    78.4       171
##  6 62042    Burre… Fresno KK-08       137     6.40   12.3    87.0        25
##  7 68536    Holt … San J… KK-08       195    10      12.9    94.6        28
##  8 63834    Vinel… Kern   KK-08       888    42.5    18.8   100          66
##  9 62331    Orang… Fresno KK-08       379    19      32.2    93.1        35
## 10 67306    Del P… Sacra… KK-06      2247   108      79.0    87.3         0
## # … with 410 more rows, and 7 more variables: expenditure <dbl>, income <dbl>,
## #   english <dbl>, read <dbl>, math <dbl>, student_teacher_ratio <dbl>,
## #   test_score <dbl>
…
