9 Random Forests | 7784 Skills: Programming in R
…
library(AER)
data(CASchools)

caschools <-
  CASchools %>%
  as_tibble() %>%
  mutate(student_teacher_ratio = students / teachers) %>%
  mutate(test_score = (read + math) / 2) %>%
  select(-read, -math, -students, -teachers, -district, -school, -county, -grades)

caschools

## # A tibble: 420 x 8
##    calworks  lunch computer expenditure income english student_teacher…
##       <dbl>  <dbl>    <dbl>       <dbl>  <dbl>   <dbl>            <dbl>
##  1    0.510   2.04       67       6385.  22.7     0                17.9
##  2   15.4    47.9       101       5099.   9.82    4.58             21.5
##  3   55.0    76.3       169       5502.   8.98   30.0              18.7
##  4   36.5    77.0        85       7102.   8.98    0                17.4
##  5   33.1    78.4       171       5236.   9.08   13.9              18.7
##  6   12.3    87.0        25       5580.  10.4    12.4              21.4
##  7   12.9    94.6        28       5253.   6.58   68.7              19.5
##  8   18.8   100          66       4566.   8.17   47.0              20.9
##  9   32.2    93.1        35       5356.   7.39   30.1              19.9
## 10   79.0    87.3         0       5036.  11.6    40.3              20.8
## # … with 410 more rows, and 1 more variable: test_score <dbl>
…
