10 Time Series | 7784 Skills: Programming in R
…
ts_scale(x_tbl)

## # A tibble: 144 x 3
##    id      time        value
##    <chr>   <date>      <dbl>
##  1 fdeaths 1974-01-01  1.89 
##  2 fdeaths 1974-02-01  0.714
##  3 fdeaths 1974-03-01  1.48 
##  4 fdeaths 1974-04-01  0.647
##  5 fdeaths 1974-05-01 -0.215
##  6 fdeaths 1974-06-01 -0.861
##  7 fdeaths 1974-07-01 -0.666
##  8 fdeaths 1974-08-01 -0.933
##  9 fdeaths 1974-09-01 -0.966
## 10 fdeaths 1974-10-01  0.119
## # … with 134 more rows
…
10.8.3 Combine multiple time series

A set of helper functions makes it easy to combine multiple time series, even
if their classes are different. The basic workhorse is ts_c, which simply
collect time series. Again, this works with single or multiple series of any
ts-boxable class:

ts_c(ts_tbl(EuStockMarkets), AirPassengers, ts_xts(mdeaths))

## # A tibble: 7,656 x 3
##    id    time                value
##    <chr> <dttm>              <dbl>
##  1 DAX   1991-07-01 03:18:27 1629.
##  2 DAX   1991-07-02 13:01:32 1614.
##  3 DAX   1991-07-03 22:44:38 1607.
##  4 DAX   1991-07-05 08:27:43 1621.
##  5 DAX   1991-07-06 18:10:48 1618.
##  6 DAX   1991-07-08 03:53:53 1611.
##  7 DAX   1991-07-09 13:36:59 1631.
##  8 DAX   1991-07-10 23:20:04 1640.
##  9 DAX   1991-07-12 09:03:09 1635.
## 10 DAX   1991-07-13 18:46:15 1646.
## # … with 7,646 more rows

If you want to choose a different name for single series, name the arguments:

ts_c(ts_tbl(EuStockMarkets), `Airline Passengers` = AirPassengers)

## # A tibble: 7,584 x 3
##    id    time                value
##    <chr> <dttm>              <dbl>
##  1 DAX   1991-07-01 03:18:27 1629.
##  2 DAX   1991-07-02 13:01:32 1614.
##  3 DAX   1991-07-03 22:44:38 1607.
##  4 DAX   1991-07-05 08:27:43 1621.
##  5 DAX   1991-07-06 18:10:48 1618.
##  6 DAX   1991-07-08 03:53:53 1611.
##  7 DAX   1991-07-09 13:36:59 1631.
##  8 DAX   1991-07-10 23:20:04 1640.
##  9 DAX   1991-07-12 09:03:09 1635.
## 10 DAX   1991-07-13 18:46:15 1646.
## # … with 7,574 more rows

Multiple series can be also combined to a single series:

ts_bind(ts_tbl(mdeaths), AirPassengers)

## # A tibble: 216 x 2
##    time       value
##    <date>     <dbl>
##  1 1949-01-01   112
##  2 1949-02-01   118
##  3 1949-03-01   132
##  4 1949-04-01   129
##  5 1949-05-01   121
##  6 1949-06-01   135
##  7 1949-07-01   148
##  8 1949-08-01   148
##  9 1949-09-01   136
## 10 1949-10-01   119
## # … with 206 more rows
…
ts_span(AirPassengers, start = "-200 days")

##      Jul Aug Sep Oct Nov Dec
## 1960 622 606 508 461 390 432

10.8.5 Shortcuts for pivot_wider and pivot_longer

x_ts <- ts_c(mdeaths, fdeaths)
x_tbl <- ts_tbl(x_ts)

x_wide <- ts_wide(x_tbl)
ts_long(x_wide)

## # A tibble: 144 x 3
##    id      time       value
##    <chr>   <date>     <dbl>
##  1 mdeaths 1974-01-01  2134
##  2 mdeaths 1974-02-01  1863
##  3 mdeaths 1974-03-01  1877
##  4 mdeaths 1974-04-01  1877
##  5 mdeaths 1974-05-01  1492
##  6 mdeaths 1974-06-01  1249
##  7 mdeaths 1974-07-01  1280
##  8 mdeaths 1974-08-01  1131
##  9 mdeaths 1974-09-01  1209
## 10 mdeaths 1974-10-01  1492
## # … with 134 more rows
…
