7 Visualizing statistical output | 7784 Skills: Programming in R
…
library(broom)
tidy(m)

## # A tibble: 2 x 5
##   term        estimate std.error statistic  p.value
##   <chr>          <dbl>     <dbl>     <dbl>    <dbl>
## 1 (Intercept)   79.6       2.10      37.8  9.30e-36
## 2 Education     -0.862     0.145     -5.95 3.66e- 7

augment() returns statistical information on the observations, such as
resiudals and predicted values:

augment(m)

## # A tibble: 47 x 10
##    .rownames Fertility Education .fitted .se.fit .resid   .hat .sigma .cooksd
##    <chr>         <dbl>     <int>   <dbl>   <dbl>  <dbl>  <dbl>  <dbl>   <dbl>
##  1 Courtela…      80.2        12    69.3    1.39  10.9  0.0215   9.41 1.51e-2
##  2 Delemont       83.1         9    71.8    1.41  11.3  0.0222   9.40 1.65e-2
##  3 Franches…      92.5         5    75.3    1.63  17.2  0.0297   9.18 5.23e-2
##  4 Moutier        85.8         7    73.6    1.49  12.2  0.0250   9.37 2.20e-2
##  5 Neuvevil…      76.9        15    66.7    1.50  10.2  0.0251   9.42 1.55e-2
##  6 Porrentr…      76.1         7    73.6    1.49   2.53 0.0250   9.54 9.41e-4
##  7 Broye          83.8         7    73.6    1.49  10.2  0.0250   9.42 1.54e-2
##  8 Glane          92.4         8    72.7    1.44  19.7  0.0234   9.07 5.32e-2
##  9 Gruyere        82.4         7    73.6    1.49   8.83 0.0250   9.46 1.15e-2
## 10 Sarine         82.9        13    68.4    1.41  14.5  0.0222   9.29 2.74e-2
## # … with 37 more rows, and 1 more variable: .std.resid <dbl>
…
